{"conversations": {"list": [{"uid": "1001339949", "username": "Smoovemove", "stage_name": "Smoovemove", "profile_pic": "https://cdn5.manyvids.com/php_uploads/profile/Smoovemove/image/thumbs/thumb100_20221027_174033_1668399025.jpg", "user_type": "user", "user_status": "2", "pay_to_view_price": "0.00", "isStudio": "0", "user_blocked": "0", "msg_date": "2024-02-10 05:04:31", "msg_last_id": "83318254", "msg_amount": "18", "unread_msg_amount": "1", "msg_has_attachments": "0", "has_inbox_messages": "18", "current_user_id": "1007686262", "sender_id": "1007686262", "user_id": "1001339949", "msg_date_clean": "4h", "msg_body": "33 USA and how about you?", "msg_show_manymotes": "1", "is_live": false, "is_private": false}, {"uid": "1004101619", "username": "Gratrunka", "stage_name": "Gratrunka", "profile_pic": "https://cdn3.manyvids.com/site_files/images/avatars/V2-Blackdefault_MVavatars_2017-17.svg", "user_type": "user", "user_status": "2", "pay_to_view_price": "0.00", "isStudio": "0", "user_blocked": "0", "msg_date": "2024-02-10 00:33:22", "msg_last_id": "83308374", "msg_amount": "277", "unread_msg_amount": "1", "msg_has_attachments": "0", "has_inbox_messages": "277", "current_user_id": "1007686262", "sender_id": "1007686262", "user_id": "1004101619", "msg_date_clean": "8h", "msg_body": "I would love if you did, you have a cute butt.", "msg_show_manymotes": "0", "is_live": false, "is_private": false}, {"uid": "1006750515", "username": "Alansaltsman", "stage_name": "Alansaltsman", "profile_pic": "https://cdn3.manyvids.com/site_files/images/avatars/V2-Blackdefault_MVavatars_2017-17.svg", "user_type": "user", "user_status": "2", "pay_to_view_price": "0.00", "isStudio": "0", "user_blocked": "0", "msg_date": "2024-02-09 17:29:44", "msg_last_id": "83286439", "msg_amount": "2", "unread_msg_amount": "1", "msg_has_attachments": "0", "has_inbox_messages": "2", "current_user_id": "1007686262", "sender_id": "1007686262", "user_id": "1006750515", "msg_date_clean": "15h", "msg_body": "Let&#039;s do it", "msg_show_manymotes": "0", "is_live": false, "is_private": false}, {"uid": "1005481680", "username": "thesilverfoxxxx", "stage_name": "Mr_Dilfxxx", "profile_pic": "https://cdn5.manyvids.com/php_uploads/profile/thesilverfoxxxx/image/thumbs/thumb100_-m-bJ4hdaaecac--mh-uSrRRhju6mYuv5jk-d6f78f78-ca03-4e40-9130-b798f4bec0bc_1703196694.jpg", "user_type": "model", "user_status": "2", "pay_to_view_price": "0.00", "isStudio": "1", "user_blocked": "0", "msg_date": "2024-02-09 00:40:38", "msg_last_id": "83247257", "msg_amount": "58", "unread_msg_amount": "1", "msg_has_attachments": "0", "has_inbox_messages": "58", "current_user_id": "1007686262", "sender_id": "1007686262", "user_id": "1005481680", "msg_date_clean": "Feb 9", "msg_body": "love to experiment", "msg_show_manymotes": "1", "is_live": false, "is_private": false}, {"uid": "1002017017", "username": "barktree900", "stage_name": "barktree900", "profile_pic": "https://cdn3.manyvids.com/site_files/images/avatars/V2-Blackdefault_MVavatars_2017-17.svg", "user_type": "user", "user_status": "2", "pay_to_view_price": "0.00", "isStudio": "0", "user_blocked": "0", "msg_date": "2024-02-08 21:51:25", "msg_last_id": "83238312", "msg_amount": "165", "unread_msg_amount": "1", "msg_has_attachments": "0", "has_inbox_messages": "165", "current_user_id": "1007686262", "sender_id": "1007686262", "user_id": "1002017017", "msg_date_clean": "Feb 8", "msg_body": "Such is life.&nbsp; Don&#039;t worry about me; I&#039;m sure you have enough&nbsp; of your own issues that you don&#039;t have to waste time worrying about me.&nbsp; Although I appreciate the sentiment, I do have su", "msg_show_manymotes": "0", "is_live": false, "is_private": false}, {"uid": "1000766368", "username": "VMartini007", "stage_name": "VMartini007", "profile_pic": "https://cdn3.manyvids.com/site_files/images/avatars/V2-Blackdefault_MVavatars_2017-17.svg", "user_type": "user", "user_status": "2", "pay_to_view_price": "0.00", "isStudio": "0", "user_blocked": "0", "msg_date": "2024-02-08 19:23:06", "msg_last_id": "83228032", "msg_amount": "2", "unread_msg_amount": "1", "msg_has_attachments": "0", "has_inbox_messages": "2", "current_user_id": "1007686262", "sender_id": "1007686262", "user_id": "1000766368", "msg_date_clean": "Feb 8", "msg_body": "Hey sexy. Anywhere you want to baby.", "msg_show_manymotes": "0", "is_live": false, "is_private": false}, {"uid": "1004243504", "username": "victoruakitty57", "stage_name": "victoruakitty57", "profile_pic": "https://cdn5.manyvids.com/php_uploads/profile/victoruakitty57/image/thumbs/thumb100_WIN_20210301_15_38_03_Pro_1615436757.jpg", "user_type": "user", "user_status": "2", "pay_to_view_price": "0.00", "isStudio": "0", "user_blocked": "0", "msg_date": "2024-02-08 18:15:30", "msg_last_id": "83223826", "msg_amount": "60", "unread_msg_amount": "1", "msg_has_attachments": "0", "has_inbox_messages": "60", "current_user_id": "1007686262", "sender_id": "1007686262", "user_id": "1004243504", "msg_date_clean": "Feb 8", "msg_body": "yes I&#039;m feeling good", "msg_show_manymotes": "0", "is_live": false, "is_private": false}, {"uid": "1002747378", "username": "worunner", "stage_name": "worunner", "profile_pic": "https://cdn3.manyvids.com/site_files/images/avatars/V2-Blackdefault_MVavatars_2017-17.svg", "user_type": "user", "user_status": "2", "pay_to_view_price": "0.00", "isStudio": "0", "user_blocked": "0", "msg_date": "2024-02-08 13:12:15", "msg_last_id": "83208575", "msg_amount": "1144", "unread_msg_amount": "1", "msg_has_attachments": "0", "has_inbox_messages": "1144", "current_user_id": "1007686262", "sender_id": "1007686262", "user_id": "1002747378", "msg_date_clean": "Feb 8", "msg_body": "You can warm your cold feet on my chest", "msg_show_manymotes": "0", "is_live": false, "is_private": false}, {"uid": "1003893524", "username": "japornxxxcom", "stage_name": "japornxxxcom", "profile_pic": "https://cdn5.manyvids.com/php_uploads/profile/japornxxxcom/image/thumbs/thumb100_Logopit_1636831272818_1636831743.jpg", "user_type": "model", "user_status": "2", "pay_to_view_price": "0.00", "isStudio": "1", "user_blocked": "0", "msg_date": "2024-02-08 11:51:00", "msg_last_id": "83205975", "msg_amount": "3", "unread_msg_amount": "1", "msg_has_attachments": "0", "has_inbox_messages": "3", "current_user_id": "1007686262", "sender_id": "1007686262", "user_id": "1003893524", "msg_date_clean": "Feb 8", "msg_body": "Hello, Sorry I have not been able to reply to you.\r\nI have been a little sick and am resting.", "msg_show_manymotes": "1", "is_live": false, "is_private": false}, {"uid": "1001266277", "username": "BarbroMary", "stage_name": "BarbroMary", "profile_pic": "https://cdn3.manyvids.com/site_files/images/avatars/V2-Blackdefault_MVavatars_2017-17.svg", "user_type": "user", "user_status": "2", "pay_to_view_price": "0.00", "isStudio": "0", "user_blocked": "0", "msg_date": "2024-02-08 09:56:16", "msg_last_id": "83202642", "msg_amount": "207", "unread_msg_amount": "1", "msg_has_attachments": "0", "has_inbox_messages": "207", "current_user_id": "1007686262", "sender_id": "1007686262", "user_id": "1001266277", "msg_date_clean": "Feb 8", "msg_body": "People wear all kinds of stuff. There are people who look like they just rolled out of bed. I went to a college in a fairly conservative region of the US so there were people who dressed up in collare", "msg_show_manymotes": "1", "is_live": false, "is_private": false}, {"uid": "1007444966", "username": "HighKicks65", "stage_name": "HighKicks65", "profile_pic": "https://cdn5.manyvids.com/php_uploads/profile/HighKicks65/image/thumbs/thumb100_CRISPS_1693126597.jpg", "user_type": "user", "user_status": "2", "pay_to_view_price": "0.00", "isStudio": "0", "user_blocked": "0", "msg_date": "2024-02-08 09:41:24", "msg_last_id": "83202287", "msg_amount": "102", "unread_msg_amount": "1", "msg_has_attachments": "0", "has_inbox_messages": "102", "current_user_id": "1007686262", "sender_id": "1007686262", "user_id": "1007444966", "msg_date_clean": "Feb 8", "msg_body": "I&#039;m flying off to Szczecin, Poland in a few hours time for a long weekend break", "msg_show_manymotes": "0", "is_live": false, "is_private": false}, {"uid": "1006219223", "username": "kick5tart", "stage_name": "kick5tart", "profile_pic": "https://cdn5.manyvids.com/php_uploads/profile/kick5tart/image/thumbs/thumb100_8960812_3cf0f2_1684259207.jpeg", "user_type": "user", "user_status": "2", "pay_to_view_price": "0.00", "isStudio": "0", "user_blocked": "0", "msg_date": "2024-02-08 09:36:18", "msg_last_id": "83202157", "msg_amount": "239", "unread_msg_amount": "1", "msg_has_attachments": "0", "has_inbox_messages": "239", "current_user_id": "1007686262", "sender_id": "1007686262", "user_id": "1006219223", "msg_date_clean": "Feb 8", "msg_body": "I think we are perfect together &#10084;&#65039;", "msg_show_manymotes": "0", "is_live": false, "is_private": false}, {"uid": "1000246285", "username": "Stonethecrow75", "stage_name": "Stonethecrow75", "profile_pic": "https://cdn5.manyvids.com/php_uploads/profile/Stonethecrow75/image/thumbs/thumb100_E7D2AA42-EB3C-4D1F-BDDE-8826152DEFDB_1660521948.jpeg", "user_type": "user", "user_status": "2", "pay_to_view_price": "0.00", "isStudio": "0", "user_blocked": "0", "msg_date": "2024-02-08 09:12:31", "msg_last_id": "83201575", "msg_amount": "124", "unread_msg_amount": "1", "msg_has_attachments": "0", "has_inbox_messages": "124", "current_user_id": "1007686262", "sender_id": "1007686262", "user_id": "1000246285", "msg_date_clean": "Feb 8", "msg_body": "Mmm that sounds amazing &#10084;&#65039;", "msg_show_manymotes": "0", "is_live": false, "is_private": false}], "meta": {"offset": 0, "limit": 13, "results": 13, "total": 7951, "nextOffset": 13}}, "messages": {"list": [], "meta": []}, "videoLicenseKey": "", "hasDefaultMessage": false, "selectedUser": {"is_live": false, "is_private": false}, "currentUser": [], "iuid": "", "action": "clc", "abortResponse": false, "unread": 0, "all": 6578, "allUnreadTotal": {"private": 13, "crush": 0, "mvflyers": 0}, "success": false}